file,status,collection,type,license,publisher,rights,title,contributor,source,description,bibliographicCitation,creator,created,audience,subject,language
1738-06-14_MairPol.xml,pending,DOI du corpus sur Nakala,http://purl.org/coar/resource_type/c_0857,CC-BY-NC-SA-4.0,"Université de Bretagne Occidentale, Brest, 2021","id_liste_equipe, ROLE","Lettre de Jean-Jacques Dortous de Mairan à Giovanni Poleni, Paris, 14 juin, 1738.",Encodage Cécile Hamon; Vérification encodage Gwenaëlle Patat,Italie Vérone Biblioteca civica 3096 E  f°387,"draft; De la main de Jean-Jacques Dortous de, Mairan.; ;",,"DORTOUS DE MAIRAN, Jean-Jacques",1738-06-14,"POLENI, Giovanni",,fr
1742-03-24_GuerPol.xml,pending,DOI du corpus sur Nakala,http://purl.org/coar/resource_type/c_0857,CC-BY-NC-SA-4.0,"Université de Bretagne Occidentale, Brest, 2021","id_liste_equipe, ROLE","Lettre d'Hippolyte-Louis Guérin à Giovanni Poleni, Paris, 24 mars, 1742.",Encodage Cécile Hamon; Vérification encodage Gwenaëlle Patat,À préciser,"draft; De la main dHippolyte-Louis, Guérin.; Enveloppe;",,"GUERIN, Hippolyte-Louis",1742-03-24,"POLENI, Giovanni",,fr
1742-12-19_GuerPol.xml,pending,DOI du corpus sur Nakala,http://purl.org/coar/resource_type/c_0857,CC-BY-NC-SA-4.0,"Université de Bretagne Occidentale, Brest, 2021","id_liste_equipe, ROLE","Lettre d'Hippolyte-Louis Guérin à Giovanni Poleni, Paris, 19 décembre, 1742.",Encodage Cécile Hamon; Vérification encodage Gwenaëlle Patat,Italie,"draft; De la main dHippolyte-Louis, Guérin.; ;",,"GUERIN, Hippolyte-Louis",1742-12-19,"POLENI, Giovanni",,fr
1752-02-10_MairPol.xml,pending,DOI du corpus sur Nakala,http://purl.org/coar/resource_type/c_0857,CC-BY-NC-SA-4.0,"Université de Bretagne Occidentale, Brest, 2021","id_liste_equipe, ROLE","Lettre de Jean-Jacques Dortous de Mairan à Giovanni Poleni, Paris, 10 février, 1752.",Encodage Cécile Hamon; Vérification encodage Gwenaëlle Patat,Italie Vérone Biblioteca Civica 3096 E  f°521-525,"draft; De la main de Jean-Jacques Dortous de, Mairan.; Enveloppe;",,"DORTOUS DE MAIRAN, Jean-Jacques",1752-02-10,"POLENI, Giovanni",,fr
1742-11-15_GuerPol.xml,pending,DOI du corpus sur Nakala,http://purl.org/coar/resource_type/c_0857,CC-BY-NC-SA-4.0,"Université de Bretagne Occidentale, Brest, 2021","id_liste_equipe, ROLE","Lettre d'Hippolyte-Louis Guérin à Giovanni Poleni, Paris, 15 novembre, 1742.",Encodage Cécile Hamon; Vérification encodage Gwenaëlle Patat,Italie,"draft; De la main dHippolyte-Louis, Guérin.; Enveloppe;",,"GUERIN, Hippolyte-Louis",1742-11-15,"POLENI, Giovanni",,fr
1741-08-25_GuerPol.xml,pending,DOI du corpus sur Nakala,http://purl.org/coar/resource_type/c_0857,CC-BY-NC-SA-4.0,"Université de Bretagne Occidentale, Brest, 2021","id_liste_equipe, ROLE","Lettre d'Hippolyte-Louis Guérin à Giovanni Poleni, Paris, 25 août, 1741.",Encodage Cécile Hamon; Vérification encodage Gwenaëlle Patat,À renseigner,"draft; De la main dHippolyte-Louis, Guérin.; ;",,"GUERIN, Hippolyte-Louis",1741-08-25,"POLENI, Giovanni",,fr
1754-03-31_PolRam.xml,pending,DOI du corpus sur Nakala,http://purl.org/coar/resource_type/c_0857,CC-BY-NC-SA-4.0,"Université de Bretagne Occidentale, Brest, 2021","id_liste_equipe, ROLE","Lettre de Giovanni Poleni à Jean-Philippe Rameau, Padoue, 31 mars, 1754.",Encodage Cécile Hamon; Vérification encodage Gwenaëlle Patat,Italie Vérone Biblioteca civica 3096E f° 545,copy; De la main de Giovanni Poleni.; Enveloppe; Réponse à la lettre du 30 avril 1752.,,"POLENI, Giovanni",1754-03-31,"RAMEAU, Jean-Philippe",harmonie; mathématiques,fr
1750-08-30_PolRam.xml,pending,DOI du corpus sur Nakala,http://purl.org/coar/resource_type/c_0857,CC-BY-NC-SA-4.0,"Université de Bretagne Occidentale, Brest, 2021","id_liste_equipe, ROLE","Lettre de Giovanni Poleni à Jean-Philippe Rameau, Padoue, le 30 août, 1750.",Encodage Cécile Hamon; Vérification encodage Gwenaëlle Patat,Italie Vérone Biblioteca civica 3096E f° 541,"draft; De la main de Giovanni Poleni.; Enveloppe; Réponse à l’envoi du traité de Rameau,, Démonstration du principe de lharmonie servant de base à tout lart, musical théorique et pratique",,"POLENI, Giovanni",1750-08-30,"RAMEAU, Jean-Philippe",musique; art musical; harmonie; Académie des sciences de Paris,lat
1750-02-26_RamPol.xml,pending,DOI du corpus sur Nakala,http://purl.org/coar/resource_type/c_0857,CC-BY-NC-SA-4.0,"Université de Bretagne Occidentale, Brest, 2021","id_liste_equipe, ROLE","Lettre de Jean-Philippe Rameau à Giovanni Poleni, Paris, 26 février, 1750.",Encodage Cécile Hamon; Vérification encodage Gwenaëlle Patat,Italie Vérone Biblioteca civica 3096E f° 539,"letter; De la main de Jean-Philippe, Rameau.; Enveloppe; Envoi de son traité Démonstration du principe de lharmonie servant de, base à tout lart musical théorique et pratique, « Approuvée, par Messieurs de lAcadémie Royale des, Sciences , et dédiée à Monseigneur, le Comte d’Argenson, Ministre et Secrétaire dEtat ».","A.-M. Chouillet, « Le concept de beauté dans les écrits théoriques, de Rameau, in Rameau en Auvergne », Recueil d'études établi et, présenté par Jean-Louis Jam, Clermont-Ferrand, 1986, p., 101-103","RAMEAU, Jean-Philippe",1750-02-26,"POLENI, Giovanni",musique; art musical; harmonie; mathématiques,fr
1738-04-19_MairPol.xml,pending,DOI du corpus sur Nakala,http://purl.org/coar/resource_type/c_0857,CC-BY-NC-SA-4.0,"Université de Bretagne Occidentale, Brest, 2021","id_liste_equipe, ROLE","Lettre de Jean-Jacques Dortous de Mairan à Giovanni Poleni, Paris, 19 avril, 1738.",Encodage Cécile Hamon; Vérification encodage Gwenaëlle Patat,Italie Vérone Biblioteca civica 3096 E  f°377,"draft; De la main de Jean-Jacques Dortous de, Mairan.; ;",,"DORTOUS DE MAIRAN, Jean-Jacques",1738-04-19,"POLENI, Giovanni",,fr
1752-04-30_RamPol.xml,pending,DOI du corpus sur Nakala,http://purl.org/coar/resource_type/c_0857,CC-BY-NC-SA-4.0,"Université de Bretagne Occidentale, Brest, 2021","id_liste_equipe, ROLE","Lettre de Jean-Philippe Rameau à Giovanni Poleni, Paris, 30 avril, 1752.",Encodage Cécile Hamon; Vérification encodage Gwenaëlle Patat,Italie Vérone Biblioteca civica 3096E f° 543,"letter; De la main de Jean-Philippe, Rameau.; Enveloppe; Nouvel envoi d’un traité : Nouvelles réflexions de M., Rameau sur sa Démonstration du principe de, l’harmonie (Paris, Durand, Pissot, 1752).",,"RAMEAU, Jean-Philippe",1752-04-30,"POLENI, Giovanni",musique; harmonie; principe physico-mathématique,fr
