identifier,files,title,status,response
10.34847/nkl.531e3302,"1738-06-14_MairPol.xml,9f86bc4295ef41c4950b0068cdfc9bee869284ff","Lettre de Jean-Jacques Dortous de Mairan à Giovanni Poleni, Paris, 14 juin, 1738.",OK,"{""code"":201,""message"":""Data created"",""payload"":{""id"":""10.34847\/nkl.531e3302""}}"
10.34847/nkl.532duykv,"1742-03-24_GuerPol.xml,6c52b68119d645de152e15d245743677c87d4820","Lettre d'Hippolyte-Louis Guérin à Giovanni Poleni, Paris, 24 mars, 1742.",OK,"{""code"":201,""message"":""Data created"",""payload"":{""id"":""10.34847\/nkl.532duykv""}}"
10.34847/nkl.3feea0bu,"1742-12-19_GuerPol.xml,39a20da2174d42373841aabb2a90e11e2de24828","Lettre d'Hippolyte-Louis Guérin à Giovanni Poleni, Paris, 19 décembre, 1742.",OK,"{""code"":201,""message"":""Data created"",""payload"":{""id"":""10.34847\/nkl.3feea0bu""}}"
10.34847/nkl.013f1v37,"1752-02-10_MairPol.xml,0ece5637648fd85ddef02382fa24981829768065","Lettre de Jean-Jacques Dortous de Mairan à Giovanni Poleni, Paris, 10 février, 1752.",OK,"{""code"":201,""message"":""Data created"",""payload"":{""id"":""10.34847\/nkl.013f1v37""}}"
10.34847/nkl.edf5ru67,"1742-11-15_GuerPol.xml,0f634f7c1c8635da97a14a1fe3826e188f00ac30","Lettre d'Hippolyte-Louis Guérin à Giovanni Poleni, Paris, 15 novembre, 1742.",OK,"{""code"":201,""message"":""Data created"",""payload"":{""id"":""10.34847\/nkl.edf5ru67""}}"
10.34847/nkl.ce2bw5j3,"1741-08-25_GuerPol.xml,7d03fbffd12eb671b4ca0876ea7ae3366fe075ff","Lettre d'Hippolyte-Louis Guérin à Giovanni Poleni, Paris, 25 août, 1741.",OK,"{""code"":201,""message"":""Data created"",""payload"":{""id"":""10.34847\/nkl.ce2bw5j3""}}"
10.34847/nkl.fe5d07rq,"1754-03-31_PolRam.xml,dc849539689447baccebe7afb5b67c39af6e95d1","Lettre de Giovanni Poleni à Jean-Philippe Rameau, Padoue, 31 mars, 1754.",OK,"{""code"":201,""message"":""Data created"",""payload"":{""id"":""10.34847\/nkl.fe5d07rq""}}"
10.34847/nkl.cca5xb3c,"1750-08-30_PolRam.xml,22b2668111a71207c173a8554be593dedc14e337","Lettre de Giovanni Poleni à Jean-Philippe Rameau, Padoue, le 30 août, 1750.",OK,"{""code"":201,""message"":""Data created"",""payload"":{""id"":""10.34847\/nkl.cca5xb3c""}}"
10.34847/nkl.675dlg47,"1750-02-26_RamPol.xml,ae9836a8979d4920369c6e8d6d70b88a8f5ee3bb","Lettre de Jean-Philippe Rameau à Giovanni Poleni, Paris, 26 février, 1750.",OK,"{""code"":201,""message"":""Data created"",""payload"":{""id"":""10.34847\/nkl.675dlg47""}}"
10.34847/nkl.8aabuo11,"1738-04-19_MairPol.xml,794aeb1840c63e906738edd63fb5e4e322be446d","Lettre de Jean-Jacques Dortous de Mairan à Giovanni Poleni, Paris, 19 avril, 1738.",OK,"{""code"":201,""message"":""Data created"",""payload"":{""id"":""10.34847\/nkl.8aabuo11""}}"
10.34847/nkl.4942a04a,"1752-04-30_RamPol.xml,1fb53310e477fe1bec240a65bba36fb268fafb81","Lettre de Jean-Philippe Rameau à Giovanni Poleni, Paris, 30 avril, 1752.",OK,"{""code"":201,""message"":""Data created"",""payload"":{""id"":""10.34847\/nkl.4942a04a""}}"
